<?xml version="1.0" encoding="utf-8"?>
<!-- Generator: Adobe Illustrator 19.1.0, SVG Export Plug-In . SVG Version: 6.00 Build 0)  -->
<svg version="1.1" xmlns="http://www.w3.org/2000/svg" xmlns:xlink="http://www.w3.org/1999/xlink" x="0px" y="0px"
	 viewBox="0 0 48 49.6" style="enable-background:new 0 0 48 49.6;" xml:space="preserve">
<style type="text/css">
	.st0{fill:#FFFFFF;}
	.st1{fill:#E6E6E6;}
	.st2{fill:#B3B3B3;}
	.st3{fill:#4394DD;}
	.st4{fill:#2E7CB7;}
	.st5{fill:#16557C;}
	.st6{fill:#EF5350;}
	.st7{fill:#EC407A;}
	.st8{fill:#AB47BC;}
	.st9{fill:#29B6F6;}
	.st10{fill:#26A69A;}
	.st11{fill:#66BB6A;}
	.st12{fill:#FFDE80;}
	.st13{fill:#FFC880;}
	.st14{fill:#FF9B80;}
	.st15{fill:#47BABA;}
	.st16{fill:#46BC9D;}
	.st17{fill:#C3E8F4;}
	.st18{fill:#FFCA28;}
	.st19{fill:#FFA726;}
	.st20{fill:#FF7043;}
	.st21{fill:#98A6AD;}
	.st22{fill:#CCCCCC;}
	.st23{fill:#E1E4E9;}
	.st24{fill:#797979;}
	.st25{fill:#333333;}
	.st26{fill:#505458;}
	.st27{fill:#E02828;}
	.st28{fill:none;stroke:#16557C;stroke-miterlimit:10;}
	.st29{clip-path:url(#SVGID_3_);}
	.st30{fill:none;stroke:#505458;stroke-linecap:round;stroke-linejoin:round;stroke-miterlimit:10;}
	.st31{fill:#D8444F;stroke:#FFFFFF;stroke-miterlimit:10;}
	.st32{fill:none;stroke:#000000;stroke-linecap:round;stroke-linejoin:round;stroke-miterlimit:10;}
	.st33{opacity:0.5;fill:#1E4968;}
	.st34{fill:none;stroke:#FFFFFF;stroke-miterlimit:10;}
	.st35{opacity:0.5;fill:none;stroke:#1E4968;stroke-miterlimit:10;}
	.st36{opacity:0.2;clip-path:url(#SVGID_7_);}
	.st37{opacity:0.2;}
	.st38{clip-path:url(#SVGID_7_);fill:url(#SVGID_12_);}
	.st39{fill:#29ABE2;}
	.st40{fill:#FCEE21;}
	.st41{fill:url(#SVGID_15_);}
	.st42{fill:url(#SVGID_16_);}
	.st43{fill:#1C638E;}
	.st44{fill:none;stroke:#CCCCCC;stroke-miterlimit:10;}
	.st45{opacity:0.54;}
	.st46{fill:#F2F2F2;}
	.st47{clip-path:url(#SVGID_18_);fill:url(#SVGID_19_);}
	.st48{fill:#FBBD2C;}
	.st49{fill:#FBBE2D;}
	.st50{fill:#FBBE2F;}
	.st51{fill:#E48A2D;}
	.st52{fill:#F0A52D;}
	.st53{fill:none;stroke:#E1E4E9;stroke-miterlimit:10;}
	.st54{fill:#333333;stroke:#E1E4E9;stroke-miterlimit:10;}
	.st55{fill:none;stroke:#CCCCCC;stroke-width:0.25;stroke-miterlimit:10;}
	.st56{opacity:0.6;}
	.st57{fill:#FFFFFF;stroke:#000000;stroke-width:0.25;stroke-miterlimit:10;}
	.st58{clip-path:url(#SVGID_28_);fill:#FFFFFF;}
	.st59{clip-path:url(#SVGID_28_);}
	.st60{opacity:0.88;clip-path:url(#SVGID_30_);fill:url(#SVGID_31_);}
	.st61{clip-path:url(#SVGID_30_);}
	.st62{opacity:0.88;clip-path:url(#SVGID_30_);fill:url(#SVGID_32_);}
	.st63{opacity:0.8;fill:#FFFFFF;}
	.st64{clip-path:url(#SVGID_36_);fill:#FFFFFF;}
	.st65{clip-path:url(#SVGID_36_);}
	.st66{opacity:0.88;clip-path:url(#SVGID_39_);fill:url(#SVGID_40_);}
	.st67{clip-path:url(#SVGID_39_);}
	.st68{opacity:0.88;clip-path:url(#SVGID_39_);fill:url(#SVGID_41_);}
	.st69{opacity:0.38;}
	.st70{opacity:0.6;fill:#66BB6A;}
	.st71{opacity:0.4;fill:#FFED45;}
	.st72{opacity:0.3;fill:#DB2C2C;}
	.st73{fill:none;stroke:#66BB6A;stroke-miterlimit:10;}
	.st74{fill:none;stroke:#FFCA28;stroke-miterlimit:10;}
	.st75{fill:none;stroke:#FF7043;stroke-miterlimit:10;}
	.st76{fill:none;stroke:#505458;stroke-miterlimit:10;}
	.st77{fill:none;stroke:#2E7CB7;stroke-width:2;stroke-miterlimit:10;}
	.st78{opacity:0.2;fill:#EF5350;}
	.st79{opacity:0.4;fill:#EF5350;}
	.st80{opacity:0.6;fill:#EF5350;}
	.st81{fill:none;stroke:#2E7CB7;stroke-width:2;stroke-linecap:round;stroke-linejoin:round;stroke-miterlimit:10;}
	.st82{opacity:0.2;fill:#2E45B7;}
	.st83{opacity:0.4;fill:#2E45B7;}
	.st84{opacity:0.6;fill:#2E45B7;}
	.st85{fill:none;stroke:#797979;stroke-miterlimit:10;}
	.st86{opacity:0.56;}
	.st87{fill:none;stroke:#797979;stroke-miterlimit:10;stroke-dasharray:1,10;}
	.st88{fill:#6B8089;}
	.st89{fill:none;stroke:#98A6AD;stroke-linecap:round;stroke-linejoin:round;stroke-miterlimit:10;}
	.st90{opacity:0.38;fill:none;stroke:#000000;stroke-miterlimit:10;}
	.st91{fill:none;}
	.st92{fill:#8D6E63;}
	.st93{fill:#78909C;}
	.st94{fill:#83CFEA;}
	.st95{fill:#F299A8;}
	.st96{fill:#F4F8F9;}
	.st97{fill:#3B3E47;}
	.st98{fill:#83DBA9;}
	.st99{fill:#FFE3E3;}
	.st100{fill:#4992BF;}
	.st101{fill:#333333;fill-opacity:0.5;}
	.st102{fill:none;stroke:#29B6F6;stroke-miterlimit:10;}
	.st103{clip-path:url(#SVGID_45_);}
	.st104{fill:none;stroke:#29B6F6;stroke-width:2;stroke-miterlimit:10;}
	.st105{fill:#F59896;}
	.st106{fill:#F9BAB9;}
	.st107{fill:#E4C7CA;}
	.st108{fill:#828FD4;}
	.st109{fill:#ABB5E2;}
	.st110{fill:#D5DAF1;}
	.st111{fill:#F47A7A;}
	.st112{fill:#F7ADAD;}
	.st113{fill:#E2C7C9;}
	.st114{fill:#6A7ED3;}
	.st115{fill:#9DABE0;}
	.st116{fill:#BFCAEF;}
	.st117{fill:url(#SVGID_46_);}
	.st118{fill:url(#SVGID_47_);}
	.st119{opacity:0.23;fill:#333333;}
	.st120{fill:#E1E4E9;stroke:#505458;stroke-miterlimit:10;}
	.st121{clip-path:url(#SVGID_49_);}
	.st122{clip-path:url(#SVGID_51_);}
	.st123{fill:none;stroke:#EF5350;stroke-miterlimit:10;}
	.st124{fill:#999999;}
	.st125{fill:#828282;}
	.st126{fill:#666666;}
	.st127{fill:#565656;}
	.st128{fill:#383838;}
	.st129{fill:#191919;}
	.st130{fill:#FFFFFF;stroke:#000000;stroke-miterlimit:10;}
	.st131{opacity:0.48;}
	.st132{fill:none;stroke:#000000;stroke-width:4;stroke-miterlimit:10;}
	.st133{fill:url(#SVGID_54_);}
	.st134{display:none;}
	.st135{display:inline;opacity:0.5;fill:none;stroke:#AB47BC;stroke-miterlimit:10;}
	.st136{display:inline;opacity:0.5;fill:#AB47BC;}
	.st137{display:inline;}
	.st138{display:inline;fill:#AB47BC;}
</style>
<g id="Layer_1">
	<g class="st131">
		<path d="M12.6,11c0.3,1.8,0.6,3.5,0.8,5.2c0.1,0.5,0.3,0.6,0.7,0.6c4,0,7.9,0,11.9,0c0.2,0,0.5,0,0.7,0c1.5,0.2,2.5,1.4,2.4,2.9
			c-0.1,1.4-1.2,2.5-2.7,2.5c-3.7,0-7.5,0-11.2,0c-0.2,0-0.5,0-0.8,0c0.1,0.5,0.2,1,0.3,1.6c0.2,0,0.5,0,0.7,0
			c5.3,0,10.5,0.1,15.8,0.1c1.5,0,2.5,0.6,3.1,2c1.7,4.1,3.5,8.1,5.2,12.2c0.1,0.2,0.2,0.4,0.3,0.7c1.5-0.5,3-1.1,4.5-1.6
			c0.6-0.2,1.3-0.2,1.9-0.1c1.1,0.2,1.8,1.2,1.9,2.3c0.1,1.1-0.4,2.2-1.5,2.6c-2.5,1-5.1,1.9-7.7,2.7c-1.3,0.4-2.5-0.4-3.1-1.7
			c-1.5-3.6-3.1-7.1-4.6-10.7c-0.4-0.8-0.7-1.6-1-2.5c-0.2-0.5-0.4-0.6-0.9-0.6c-5.4,0-10.9-0.1-16.3-0.1c-2,0-2.9-0.8-3.2-2.7
			C8.6,19.9,7.6,13.4,6.5,7C6,4.1,7.1,1.7,9.4,0.6c2-0.9,4-0.8,5.8,0.6c1.8,1.4,2.5,3.3,2,5.4c-0.5,2.2-1.9,3.7-4.1,4.3
			C13,10.9,12.8,11,12.6,11z"/>
		<path d="M0,33.3c0.1-4.2,1.4-7.9,4.1-11c0.8-1,2-1.2,3.1-0.8c1.1,0.5,1.8,1.6,1.6,2.7c-0.1,0.7-0.5,1.3-0.9,1.8
			c-2.8,3.5-3.4,8.3-1.3,12.3c2.2,3.9,5.6,6,10.1,5.9c4.5-0.1,7.7-2.3,9.8-6.3c0.1-0.2,0.2-0.3,0.2-0.5c0.7-1.4,2.2-2,3.5-1.4
			c1.4,0.6,2,2.1,1.3,3.5c-2.4,5.3-6.4,8.7-12.1,9.7C10,51.1,1.3,44.6,0.1,35C0,34.4,0,33.8,0,33.3z"/>
	</g>
</g>
<g id="Layer_5">
</g>
<g id="Layer_2">
</g>
<g id="Margins_and_paddings">
</g>
<g id="Layer_6" class="st134">
</g>
</svg>
