<?xml version="1.0" encoding="utf-8"?>
<!-- Generator: Adobe Illustrator 19.1.0, SVG Export Plug-In . SVG Version: 6.00 Build 0)  -->
<svg version="1.1" xmlns="http://www.w3.org/2000/svg" xmlns:xlink="http://www.w3.org/1999/xlink" x="0px" y="0px"
	 viewBox="0 0 48 62.7" style="enable-background:new 0 0 48 62.7;" xml:space="preserve">
<style type="text/css">
	.st0{fill:#FFFFFF;}
	.st1{fill:#E6E6E6;}
	.st2{fill:#B3B3B3;}
	.st3{fill:#4394DD;}
	.st4{fill:#2E7CB7;}
	.st5{fill:#16557C;}
	.st6{fill:#EF5350;}
	.st7{fill:#EC407A;}
	.st8{fill:#AB47BC;}
	.st9{fill:#29B6F6;}
	.st10{fill:#26A69A;}
	.st11{fill:#66BB6A;}
	.st12{fill:#FFDE80;}
	.st13{fill:#FFC880;}
	.st14{fill:#FF9B80;}
	.st15{fill:#47BABA;}
	.st16{fill:#46BC9D;}
	.st17{fill:#C3E8F4;}
	.st18{fill:#FFCA28;}
	.st19{fill:#FFA726;}
	.st20{fill:#FF7043;}
	.st21{fill:#98A6AD;}
	.st22{fill:#CCCCCC;}
	.st23{fill:#E1E4E9;}
	.st24{fill:#797979;}
	.st25{fill:#333333;}
	.st26{fill:#505458;}
	.st27{fill:#E02828;}
	.st28{fill:none;stroke:#16557C;stroke-miterlimit:10;}
	.st29{clip-path:url(#SVGID_2_);}
	.st30{fill:none;stroke:#505458;stroke-linecap:round;stroke-linejoin:round;stroke-miterlimit:10;}
	.st31{fill:#D8444F;stroke:#FFFFFF;stroke-miterlimit:10;}
	.st32{fill:none;stroke:#000000;stroke-linecap:round;stroke-linejoin:round;stroke-miterlimit:10;}
	.st33{opacity:0.5;fill:#1E4968;}
	.st34{fill:none;stroke:#FFFFFF;stroke-miterlimit:10;}
	.st35{opacity:0.5;fill:none;stroke:#1E4968;stroke-miterlimit:10;}
	.st36{opacity:0.2;clip-path:url(#SVGID_6_);}
	.st37{opacity:0.2;}
	.st38{clip-path:url(#SVGID_6_);fill:url(#SVGID_11_);}
	.st39{fill:#29ABE2;}
	.st40{fill:#FCEE21;}
	.st41{fill:url(#SVGID_14_);}
	.st42{fill:url(#SVGID_15_);}
	.st43{fill:#1C638E;}
	.st44{fill:none;stroke:#CCCCCC;stroke-miterlimit:10;}
	.st45{opacity:0.54;}
	.st46{fill:#F2F2F2;}
	.st47{clip-path:url(#SVGID_17_);fill:url(#SVGID_18_);}
	.st48{fill:#FBBD2C;}
	.st49{fill:#FBBE2D;}
	.st50{fill:#FBBE2F;}
	.st51{fill:#E48A2D;}
	.st52{fill:#F0A52D;}
	.st53{fill:none;stroke:#E1E4E9;stroke-miterlimit:10;}
	.st54{fill:#333333;stroke:#E1E4E9;stroke-miterlimit:10;}
	.st55{fill:none;stroke:#CCCCCC;stroke-width:0.25;stroke-miterlimit:10;}
	.st56{opacity:0.6;}
	.st57{fill:#FFFFFF;stroke:#000000;stroke-width:0.25;stroke-miterlimit:10;}
	.st58{clip-path:url(#SVGID_27_);fill:#FFFFFF;}
	.st59{clip-path:url(#SVGID_27_);}
	.st60{opacity:0.88;clip-path:url(#SVGID_29_);fill:url(#SVGID_30_);}
	.st61{clip-path:url(#SVGID_29_);}
	.st62{opacity:0.88;clip-path:url(#SVGID_29_);fill:url(#SVGID_31_);}
	.st63{opacity:0.8;fill:#FFFFFF;}
	.st64{clip-path:url(#SVGID_35_);fill:#FFFFFF;}
	.st65{clip-path:url(#SVGID_35_);}
	.st66{opacity:0.88;clip-path:url(#SVGID_38_);fill:url(#SVGID_39_);}
	.st67{clip-path:url(#SVGID_38_);}
	.st68{opacity:0.88;clip-path:url(#SVGID_38_);fill:url(#SVGID_40_);}
	.st69{opacity:0.38;}
	.st70{opacity:0.6;fill:#66BB6A;}
	.st71{opacity:0.4;fill:#FFED45;}
	.st72{opacity:0.3;fill:#DB2C2C;}
	.st73{fill:none;stroke:#66BB6A;stroke-miterlimit:10;}
	.st74{fill:none;stroke:#FFCA28;stroke-miterlimit:10;}
	.st75{fill:none;stroke:#FF7043;stroke-miterlimit:10;}
	.st76{fill:none;stroke:#505458;stroke-miterlimit:10;}
	.st77{fill:none;stroke:#2E7CB7;stroke-width:2;stroke-miterlimit:10;}
	.st78{opacity:0.2;fill:#EF5350;}
	.st79{opacity:0.4;fill:#EF5350;}
	.st80{opacity:0.6;fill:#EF5350;}
	.st81{fill:none;stroke:#2E7CB7;stroke-width:2;stroke-linecap:round;stroke-linejoin:round;stroke-miterlimit:10;}
	.st82{opacity:0.2;fill:#2E45B7;}
	.st83{opacity:0.4;fill:#2E45B7;}
	.st84{opacity:0.6;fill:#2E45B7;}
	.st85{fill:none;stroke:#797979;stroke-miterlimit:10;}
	.st86{opacity:0.56;}
	.st87{fill:none;stroke:#797979;stroke-miterlimit:10;stroke-dasharray:1,10;}
	.st88{fill:#6B8089;}
	.st89{fill:none;stroke:#98A6AD;stroke-linecap:round;stroke-linejoin:round;stroke-miterlimit:10;}
	.st90{opacity:0.38;fill:none;stroke:#000000;stroke-miterlimit:10;}
	.st91{fill:none;}
	.st92{fill:#8D6E63;}
	.st93{fill:#78909C;}
	.st94{fill:#83CFEA;}
	.st95{fill:#F299A8;}
	.st96{fill:#F4F8F9;}
	.st97{fill:#3B3E47;}
	.st98{fill:#83DBA9;}
	.st99{fill:#FFE3E3;}
	.st100{fill:#4992BF;}
	.st101{fill:#333333;fill-opacity:0.5;}
	.st102{fill:none;stroke:#29B6F6;stroke-miterlimit:10;}
	.st103{clip-path:url(#SVGID_44_);}
	.st104{fill:none;stroke:#29B6F6;stroke-width:2;stroke-miterlimit:10;}
	.st105{fill:#F59896;}
	.st106{fill:#F9BAB9;}
	.st107{fill:#E4C7CA;}
	.st108{fill:#828FD4;}
	.st109{fill:#ABB5E2;}
	.st110{fill:#D5DAF1;}
	.st111{fill:#F47A7A;}
	.st112{fill:#F7ADAD;}
	.st113{fill:#E2C7C9;}
	.st114{fill:#6A7ED3;}
	.st115{fill:#9DABE0;}
	.st116{fill:#BFCAEF;}
	.st117{fill:url(#SVGID_45_);}
	.st118{fill:url(#SVGID_46_);}
	.st119{opacity:0.23;fill:#333333;}
	.st120{fill:#E1E4E9;stroke:#505458;stroke-miterlimit:10;}
	.st121{clip-path:url(#SVGID_48_);}
	.st122{clip-path:url(#SVGID_50_);}
	.st123{fill:none;stroke:#EF5350;stroke-miterlimit:10;}
	.st124{fill:#999999;}
	.st125{fill:#828282;}
	.st126{fill:#666666;}
	.st127{fill:#565656;}
	.st128{fill:#383838;}
	.st129{fill:#191919;}
	.st130{fill:#FFFFFF;stroke:#000000;stroke-miterlimit:10;}
	.st131{opacity:0.48;}
	.st132{fill:none;stroke:#000000;stroke-width:4;stroke-miterlimit:10;}
	.st133{opacity:0.3;fill:none;stroke:#FFFFFF;stroke-width:0.5;stroke-miterlimit:10;}
	.st134{fill:url(#SVGID_53_);}
	.st135{display:none;}
	.st136{display:inline;opacity:0.5;fill:none;stroke:#AB47BC;stroke-miterlimit:10;}
	.st137{display:inline;opacity:0.5;fill:#AB47BC;}
	.st138{display:inline;}
	.st139{opacity:0.5;fill:#AB47BC;}
	.st140{display:inline;opacity:0.5;}
	.st141{display:inline;opacity:0.48;fill:#39B54A;}
	.st142{display:inline;fill:#FFA726;}
	.st143{display:inline;opacity:0.48;fill:#29ABE2;}
</style>
<g id="Layer_1">
	<g class="st131">
		<path d="M25.7,0c0.3,0.1,0.7,0.2,1,0.3c4.5,1,7.6,3.6,9,8c1.4,4.5,1.1,8.9-2.5,12.3c-2.6,2.5-4.7,5-3.9,8.9c-3.7,0-7.1,0-10.6,0
			c0-0.5-0.1-0.7-0.1-1c0.2-2.8-0.7-4.9-2.9-6.8c-7-5.9-4.8-15.8,0.5-19.3c1.8-1.2,4-1.7,6-2.5C23.4,0,24.5,0,25.7,0z"/>
		<path d="M21.9,62.7c-0.4-0.1-0.8-0.3-1.2-0.4c-9.9-2.5-13.9-14.2-7.7-22.2c1.2-1.5,2.6-1.7,3.5-0.4c0.8,1.2,0.1,2-0.6,3
			c-3.7,5-2.2,12,3.3,14.9c4.1,2.2,9.1,1.3,12.3-2.2c3.1-3.5,3.4-8.6,0.7-12.4c-1.4-1.9-1.4-3-0.3-3.7c1.2-0.8,2.2-0.3,3.5,1.6
			c5.6,8.1,1.2,19.2-8.3,21.5c-0.4,0.1-0.8,0.2-1.2,0.3C24.6,62.7,23.3,62.7,21.9,62.7z"/>
		<path d="M30,37.1c0,1.6,0,3.2,0,4.7c0,2.4-1.1,3.5-3.5,3.5c-1.7,0-3.4,0-5.2,0c-2.2,0-3.3-1.1-3.3-3.3c0-1.5,0-3,0-4.5
			c0-0.1-0.1-0.2-0.1-0.2c-3.9-0.7-7.7-1.4-11.6-2.1C5,34.9,3.6,34.4,2.3,34c-1.8-0.6-2.6-2-2.1-3.6c0.5-1.7,2-2.4,3.9-1.8
			c7.2,2.2,14.7,3.3,22.2,3.1c5.9-0.1,11.7-1.1,17.4-2.7c1.9-0.5,3.1-0.1,3.9,1.1c1,1.7,0.1,3.8-2.1,4.3c-4.7,1-9.4,1.7-14.1,2.6
			C31,37,30.6,37,30,37.1z"/>
	</g>
</g>
<g id="Layer_5">
</g>
<g id="Layer_2">
</g>
<g id="Margins_and_paddings">
</g>
<g id="Layer_6" class="st135">
</g>
</svg>
